Household-level indicators • humind
…
main <- dummy_raw_data$main |> as_tibble()
main$weight <- 1

Shelter and NFI

Shelter types

# Category of shelter type
main <- add_shelter_type_cat(main)
# main |> select(snfi_shelter_type, snfi_shelter_type_individual, snfi_shelter_type_cat)

# Shelter issues
main <- add_shelter_issue_cat(main)
main |> select(snfi_shelter_issue, snfi_shelter_issue_n, snfi_shelter_issue_cat)
#> # A tibble: 400 × 3
#>    snfi_shelter_issue                snfi_shelter_issue_n snfi_shelter_issue_cat
#>    <chr>                                            <dbl> <chr>                 
#>  1 lack_privacy lack_space temperat…                 -999 undefined             
#>  2 NA                                                  NA NA                    
#>  3 NA                                                  NA NA                    
#>  4 NA                                                  NA NA                    
#>  5 lack_privacy lack_lighting diffi…                 -999 undefined             
#>  6 NA                                                  NA NA                    
#>  7 lack_space temperature leak lock…                 -999 undefined             
#>  8 NA                                                  NA NA                    
#>  9 lack_space temperature ventilati…                 -999 undefined             
#> 10 NA                                                  NA NA                    
#> # ℹ 390 more rows

Functional domestic space

# Category of functional domestic space
main <- add_fds_cannot_cat(main)
main |> select(snfi_fds_cooking, snfi_fds_sleeping, snfi_fds_storing, snfi_fds_personal_hygiene, energy_lighting_source, snfi_fds_cannot_n, snfi_fds_cannot_cat)
#> # A tibble: 400 × 7
#>    snfi_fds_cooking snfi_fds_sleeping snfi_fds_storing snfi_fds_personal_hygiene
#>    <chr>            <chr>             <chr>            <chr>                    
#>  1 no_cannot        yes_no_issues     yes_no_issues    undefined                
#>  2 NA               NA                NA               NA                       
#>  3 NA               NA                NA               NA                       
#>  4 NA               NA                NA               NA                       
#>  5 no_cannot        yes_no_issues     no_cannot        undefined                
#>  6 NA               NA                NA               NA                       
#>  7 undefined        yes_no_issues     no_cannot        yes_no_issues            
#>  8 NA               NA                NA               NA                       
#>  9 yes_no_issues    yes_no_issues     yes_no_issues    yes_issues               
#> 10 NA               NA                NA               NA                       
#> # ℹ 390 more rows
#> # ℹ 3 more variables: energy_lighting_source <chr>, snfi_fds_cannot_n <dbl>,
#> #   snfi_fds_cannot_cat <chr>
…
Water source and time to fetch water

# Category of water source
main <- add_drinking_water_source_cat(main)

# Time to fetch water
main <- add_drinking_water_time_cat(main)

# Time to fetch water according to the 1h threshold
main <- add_drinking_water_time_threshold_cat(main)
main |> select(wash_drinking_water_source, wash_drinking_water_time_yn, wash_drinking_water_time_int, wash_drinking_water_time_sl, wash_drinking_water_time_cat, wash_drinking_water_time_threshold_cat)
#> # A tibble: 400 × 6
#>    wash_drinking_water_source wash_drinking_water_time_yn wash_drinking_water_…¹
#>    <chr>                      <chr>                                        <dbl>
#>  1 other                      dnk                                             NA
#>  2 NA                         NA                                              NA
#>  3 bottled_water              dnk                                             NA
#>  4 NA                         NA                                              NA
#>  5 cart_tank                  number_minutes                                 154
#>  6 sachet_water               pnta                                            NA
#>  7 kiosk                      pnta                                            NA
#>  8 NA                         NA                                              NA
#>  9 tap                        dnk                                             NA
#> 10 NA                         NA                                              NA
#> # ℹ 390 more rows
#> # ℹ abbreviated name: ¹​wash_drinking_water_time_int
#> # ℹ 3 more variables: wash_drinking_water_time_sl <chr>,
#> #   wash_drinking_water_time_cat <chr>,
#> #   wash_drinking_water_time_threshold_cat <chr>
…
